SERVICIO;PAIS;POSTALORIG;POSTALDEST;PESO;IMPORTE;PRECINCREMENTO
24;ES;0;99999;2;5.40;
24;ES;0;99999;5;8.88;
24;ES;0;99999;10;9.95;
24;ES;0;99999;999999;10.62;1.12
49;ES;0;99999;2;9.58;
49;ES;0;99999;5;10.71;
49;ES;0;99999;10;13.62;
49;ES;0;99999;999999;13.62;2.01
57;ES;0;99999;2;15.25;
57;ES;0;99999;5;17.12;
57;ES;0;99999;10;18.56;
57;ES;0;99999;999999;20.01;2.5
50;ES;20001;20999;10;5.95;
50;ES;20001;20999;15;6.95;
50;ES;20001;20999;20;7.95;
50;ES;20001;20999;999999;7.95;0.1275
50;ES;1001;1999;5;5.95;
50;ES;1001;1999;10;7.95;
50;ES;1001;1999;15;9.95;
50;ES;1001;1999;20;11.95;
50;ES;1001;1999;999999;11.95;0.4125
50;ES;48001;48999;5;5.95;
50;ES;48001;48999;10;7.95;
50;ES;48001;48999;15;9.95;
50;ES;48001;48999;20;11.95;
50;ES;48001;48999;999999;11.95;0.4125
50;ES;31001;31999;5;5.95;
50;ES;31001;31999;10;7.95;
50;ES;31001;31999;15;9.95;
50;ES;31001;31999;20;11.95;
50;ES;31001;31999;999999;11.95;0.4125
50;ES;39001;39999;5;5.95;
50;ES;39001;39999;10;7.95;
50;ES;39001;39999;15;9.95;
50;ES;39001;39999;20;11.95;
50;ES;39001;39999;999999;11.95;0.4125
50;ES;26001;26999;5;5.95;
50;ES;26001;26999;10;7.95;
50;ES;26001;26999;15;9.95;
50;ES;26001;26999;20;11.95;
50;ES;26001;26999;999999;11.95;0.4125
50;ES;7001;7999;1;11.95;
50;ES;7001;7999;2;15.95;
50;ES;7001;7999;3;19.95;
50;ES;7001;7999;4;23.95;
50;ES;7001;7999;5;26.95;
50;ES;7001;7999;6;30.95;
50;ES;7001;7999;7;34.95;
50;ES;7001;7999;8;38.95;
50;ES;7001;7999;9;42.95;
50;ES;7001;7999;10;45.95;
50;ES;7001;7999;11;49.95;
50;ES;7001;7999;12;53.95;
50;ES;7001;7999;13;57.95;
50;ES;7001;7999;14;60.95;
50;ES;7001;7999;15;64.95;
50;ES;7001;7999;16;68.95;
50;ES;7001;7999;17;72.95;
50;ES;7001;7999;18;76.95;
50;ES;7001;7999;19;80.95;
50;ES;7001;7999;20;83.95;
50;ES;7001;7999;999999;83.95;3.21
50;ES;35001;35999;1;12.95;
50;ES;35001;35999;2;19.95
50;ES;35001;35999;3;25.95
50;ES;35001;35999;4;32.85
50;ES;35001;35999;5;38.95
50;ES;35001;35999;6;45.95
50;ES;35001;35999;7;52.95
50;ES;35001;35999;8;58.95
50;ES;35001;35999;9;65.95
50;ES;35001;35999;10;72.95
50;ES;35001;35999;11;78.95
50;ES;35001;35999;12;85.95
50;ES;35001;35999;13;91.95
50;ES;35001;35999;14;98.95
50;ES;35001;35999;15;105.95
50;ES;35001;35999;16;111.95
50;ES;35001;35999;17;118.95
50;ES;35001;35999;18;125.95;
50;ES;35001;35999;19;131.95;
50;ES;35001;35999;20;138.95;
50;ES;35001;35999;999999;138.95;5.61
50;ES;38001;38999;1;27.95;
50;ES;38001;38999;2;42.95;
50;ES;38001;38999;3;56.95;
50;ES;38001;38999;4;70.95;
50;ES;38001;38999;5;84.95;
50;ES;38001;38999;6;98.95;
50;ES;38001;38999;7;112.95;
50;ES;38001;38999;8;125.95;
50;ES;38001;38999;9;139.95;
50;ES;38001;38999;10;153.95;
50;ES;38001;38999;11;167.95;
50;ES;38001;38999;12;181.95;
50;ES;38001;38999;13;195.95;
50;ES;38001;38999;14;209.95;
50;ES;38001;38999;15;223.95;
50;ES;38001;38999;16;237.95;
50;ES;38001;38999;17;250.95;
50;ES;38001;38999;18;265.95;
50;ES;38001;38999;19;279.95;
50;ES;38001;38999;20;293.95;
50;ES;38001;38999;999999;293.95;11.7
50;ES;0;99999;2;200;
50;ES;0;99999;5;200;
50;ES;0;99999;10;200;
50;ES;0;99999;13;200;
50;ES;0;99999;16;200;
50;ES;0;99999;17;200;
50;ES;0;99999;18;200;
50;ES;0;99999;20;200;
50;ES;0;99999;999999;200;0.5325